material Materials/OverlayMaterial
 {
     technique
     {
         pass
         {
             scene_blend alpha_blend
 
             texture_unit
             {
                 texture black.png
             }
         }
     }
 }