material HUD
{
	technique
    {
        pass
        {
			lighting off
            scene_blend alpha_blend
            depth_check off
            
			texture_unit
            {	
				texture AFborderPanel.png
            }
        }
    }
}